CCT Hierarchy Functions • CCT
…
Make YAML Watchlist (for Augur)

getDescendants(ll$network, "BF.7", vector = TRUE) %>% makeWatchlist()

## [1] "[ 'BF.7', 'BF.7.1', 'BF.7.2', 'BF.7.3', 'BF.7.4', 'BF.7.4.1', 'BF.7.4.2', 'BF.7.4.3', 'BF.7.5', 'BF.7.5.1', 'BF.7.6', 'BF.7.7', 'BF.7.8', 'BF.7.9', 'BF.7.10', 'BF.7.11', 'BF.7.12', 'BF.7.13', 'BF.7.13.1', 'BF.7.13.2', 'BF.7.14', 'BF.7.14.1', 'BF.7.14.2', 'BF.7.14.3', 'BF.7.14.4', 'BF.7.14.5', 'BF.7.14.6', 'BF.7.14.7', 'BF.7.15', 'BF.7.16', 'BF.7.16.1', 'BF.7.17', 'BF.7.18', 'BF.7.19', 'BF.7.19.1', 'BF.7.20', 'BF.7.21', 'BF.7.22', 'BF.7.23', 'BF.7.24', 'BF.7.26', 'BF.7.27' ]"

Download Variants table from CoVariants

vars <- getVariants()
vars

## # A tibble: 37 × 3
##    lineage   clade           who    
##    <chr>     <chr>           <chr>  
##  1 B.1.1.7   20I (Alpha, V1) Alpha  
##  2 B.1.351   20H (Beta, V2)  Beta   
##  3 P.1       20J (Gamma, V3) Gamma  
##  4 B.1.617.2 21A (Delta)     Delta  
##  5 B.1.617.1 21B (Kappa)     Kappa  
##  6 B.1.427   21C (Epsilon)   Epsilon
##  7 B.1.429   21C (Epsilon)   Epsilon
##  8 B.1.525   21D (Eta)       Eta    
##  9 B.1.526   21F (Iota)      Iota   
## 10 C.37      21G (Lambda)    Lambda 
## # ℹ 27 more rows
…
